dsfair_quarto - One-way alpha design
…
Data

This example is taken from Chapter *“3.8 Analysis of an* \(\alpha\)-design” of the course material “Mixed models for metric data (3402-451)” by Prof. Dr. Hans-Peter Piepho. It considers data published in John and Williams (1995) from a yield (t/ha) trial laid out as an alpha design. The trial had 24 genotypes (gen), 3 complete replicates (rep) and 6 incomplete blocks (block) within each replicate. The block size was 4.

Import

The data is available as part of the {agridat} package and needs no further formatting:

dat <- as_tibble(agridat::john.alpha)
dat

# A tibble: 72 × 7
    plot rep   block gen   yield   row   col
   <int> <fct> <fct> <fct> <dbl> <int> <int>
 1     1 R1    B1    G11    4.12     1     1
 2     2 R1    B1    G04    4.45     2     1
 3     3 R1    B1    G05    5.88     3     1
 4     4 R1    B1    G22    4.58     4     1
 5     5 R1    B2    G21    4.65     5     1
 6     6 R1    B2    G10    4.17     6     1
 7     7 R1    B2    G20    4.01     7     1
 8     8 R1    B2    G02    4.34     8     1
 9     9 R1    B3    G23    4.23     9     1
10    10 R1    B3    G14    4.76    10     1
# ℹ 62 more rows
…
