dsfair_quarto - One-way row column design
…
Data

This example is taken from Chapter “3.10 Analysis of a resolvable row-column design” of the course material “Mixed models for metric data (3402-451)” by Prof. Dr. Hans-Peter Piepho. It considers data published in Kempton, Fox, and Cerezo (1996) from a yield trial laid out as a resolvable row-column design. The trial had 35 genotypes (gen), 2 complete replicates (rep) with 5 rows (row) and 7 columns (col). Thus, a complete replicate is subdivided into incomplete rows and columns.

Import

The data is available as part of the {agridat} package:

dat <- as_tibble(agridat::kempton.rowcol)
dat

# A tibble: 68 × 5
   rep     row   col gen   yield
   <fct> <int> <int> <fct> <dbl>
 1 R1        1     1 G20    3.77
 2 R1        1     2 G04    3.21
 3 R1        1     3 G33    4.55
 4 R1        1     4 G28    4.09
 5 R1        1     5 G07    5.05
 6 R1        1     6 G12    4.19
 7 R1        1     7 G30    3.27
 8 R1        2     1 G10    3.44
 9 R1        2     2 G14    4.3 
10 R1        2     4 G21    3.86
# ℹ 58 more rows
…
Explore

We make use of dlookr::describe() to conveniently obtain descriptive summary tables. Here, we get can summarize per block and per cultivar.

dat %>% 
  group_by(gen) %>% 
  dlookr::describe(yield) %>% 
  select(2:sd) %>%
  arrange(desc(mean))

# A tibble: 35 × 5
   gen       n    na  mean     sd
   <fct> <int> <int> <dbl>  <dbl>
 1 G19       2     0  6.07 1.84  
 2 G07       2     0  5.74 0.976 
 3 G33       2     0  5.13 0.820 
 4 G06       2     0  4.96 0.940 
 5 G09       2     0  4.94 1.68  
 6 G11       2     0  4.93 1.03  
 7 G14       2     0  4.92 0.877 
 8 G27       2     0  4.89 1.80  
 9 G03       2     0  4.78 0.0424
10 G25       2     0  4.78 0.361 
# ℹ 25 more rows
…
