dsfair_quarto - Bad data & Outliers
…
Data

Imagine that this dataset was obtained by you. You spent an entire day walking around the campus of a university and asked a total of 29 people for things like how old they are (Ages) and you also tested how well they could see on a scale of 1-10 (Vision).

Import

Assuming you are working in a R-project, save the formatted file somewhere within the project directory. I have saved it within a sub folder called data so that the relative path to my file is data/vision_fixed.xls.

path <- here("data", "vision_fixed.xls")
dat <- read_excel(path)

dat

# A tibble: 29 × 9
   Person     Ages Gender `Civil state` Height Profession Vision Dista…¹ PercD…²
   <chr>     <dbl> <chr>  <chr>          <dbl> <chr>       <dbl>   <dbl>   <dbl>
 1 Andrés       25 M      S                180 Student        10     1.5    15  
 2 Anja         29 F      S                168 Professio…     10     4.5    45  
 3 Armando      31 M      S                169 Professio…      9     4.5    50  
 4 Carlos       25 M      M                185 Professio…      8     6      75  
 5 Cristina     23 F      <NA>             170 Student        10     3      30  
 6 Delfa        39 F      M                158 Professio…      6     4.5    75  
 7 Eduardo      28 M      S                166 Professio…      8     4.5    56.2
 8 Enrique      NA <NA>   <NA>              NA Professio…     NA     6      NA  
 9 Fanny        25 F      M                164 Student         9     3      33.3
10 Francisco    46 M      M                168 Professio…      8     4.5    56.2
# … with 19 more rows, and abbreviated variable names ¹​Distance, ²​PercDist
…
