dsfair_quarto - One-way completely randomized design
…
Data

This example is taken from “Example 4.3” of the course material “Quantitative Methods in Biosciences (3402-420)” by Prof. Dr. Hans-Peter Piepho. It considers data published on p.52 of Mead, Curnow, and Hasted (2002) from a yield trial with melons. The trial had 4 melon varieties (variety). Each variety was tested on six field plots. The allocation of treatments (varieties) to experimental units (plots) was completely at random. Thus, the experiment was laid out as a completely randomized design (CRD).

Import

# data is available online:
path <- "https://raw.githubusercontent.com/SchmidtPaul/dsfair_quarto/master/data/Mead1993.csv"

dat <- read_csv(path) # use path from above
dat

# A tibble: 24 × 4
   variety yield   row   col
   <chr>   <dbl> <dbl> <dbl>
 1 v1       25.1     4     2
 2 v1       17.2     1     6
 3 v1       26.4     4     1
 4 v1       16.1     1     4
 5 v1       22.2     1     2
 6 v1       15.9     2     4
 7 v2       40.2     4     4
 8 v2       35.2     3     1
 9 v2       32.0     4     6
10 v2       36.5     2     1
# … with 14 more rows
…
