dsfair_quarto - Two-way randomized complete block design
…
Data

This data is a slightly modified version of a dataset originally published in Gomez and Gomez (1984) from a yield (kg/ha) trial with 4 genotypes (G) and 6 nitrogen levels (N), leading to 24 treatment level combinations. The data set here has 3 complete replicates (rep) and is laid out as a randomized complete block design (RCBD).

Import

# data is available online:
path <- "https://raw.githubusercontent.com/SchmidtPaul/dsfair_quarto/master/data/riceRCBD.csv"

dat <- read_csv(path) # use path from above
dat

# A tibble: 72 × 6
     row   col rep   N     G     yield
   <dbl> <dbl> <chr> <chr> <chr> <dbl>
 1     2     6 rep1  N1    A      4520
 2     3     4 rep1  N2    A      5598
 3     2     3 rep1  N4    A      6192
 4     1     1 rep1  N6    A      8542
 5     2     1 rep1  N3    A      5806
 6     3     1 rep1  N5    A      7470
 7     4     5 rep1  N1    B      4034
 8     4     1 rep1  N2    B      6682
 9     3     2 rep1  N4    B      6869
10     1     2 rep1  N6    B      6318
# … with 62 more rows
…
