dsfair_quarto - Two-way split-plot design
…
Data

This dataset was originally published in Gomez and Gomez (1984) from a yield (kg/ha) trial with 4 genotypes (G) and 6 nitrogen levels (N), leading to 24 treatment level combinations. The data set here has 3 complete replicates (rep) and is laid out as a randomized complete block design (RCBD).

Import

# data is available online:
path <- "https://raw.githubusercontent.com/SchmidtPaul/dsfair_quarto/master/data/Gomez&Gomez1984.csv"

dat <- read_csv(path) # use path from above
dat

# A tibble: 72 × 7
   yield   row   col rep   mainplot G     N     
   <dbl> <dbl> <dbl> <chr> <chr>    <chr> <chr> 
 1  4520     4     1 rep1  mp1      Simba Goomba
 2  5598     2     2 rep1  mp2      Simba Koopa 
 3  6192     1     3 rep1  mp3      Simba Toad  
 4  8542     2     4 rep1  mp4      Simba Peach 
 5  5806     2     5 rep1  mp5      Simba Diddy 
 6  7470     1     6 rep1  mp6      Simba Yoshi 
 7  4034     2     1 rep1  mp1      Nala  Goomba
 8  6682     4     2 rep1  mp2      Nala  Koopa 
 9  6869     3     3 rep1  mp3      Nala  Toad  
10  6318     4     4 rep1  mp4      Nala  Peach 
# … with 62 more rows
…
